project_id,pullrequest,owner,repo,tot_count,cursor
16,713,apache,incubator-iotdb,312,MjUw
16,1125,apache,incubator-iotdb,411,MjUw
16,1127,apache,incubator-iotdb,411,MjUw
16,1465,apache,incubator-iotdb,766,MjUw
16,1570,apache,incubator-iotdb,883,MjUw
16,2802,apache,incubator-iotdb,260,MjUw
16,2839,apache,incubator-iotdb,593,MjUw
16,3447,apache,incubator-iotdb,370,MjUw
16,3965,apache,incubator-iotdb,409,MjUw
16,4043,apache,incubator-iotdb,369,MjUw
16,4304,apache,incubator-iotdb,548,MjUw
16,4400,apache,incubator-iotdb,337,MjUw
16,4732,apache,incubator-iotdb,322,MjUw
