id,project_id,prs_id,issues_id
13,1,696,424
15,1,694,352
16,1,693,1414
16,1,693,435
31,1,678,133
35,1,674,30
35,1,674,584
35,1,674,468
88,1,621,207
88,1,621,226
93,1,616,5035
121,1,588,1004
130,1,579,12722
130,1,579,1434
135,1,574,335
153,1,556,74
160,1,549,496
196,1,513,70
196,1,513,71
213,1,496,2021
823,13,881,3328
1900,13,881,3328
2449,29,103,102
2758,5,373,13499
2759,5,372,13499
2765,5,366,13499
2772,5,359,13499
2925,5,206,9975
3042,53,21,18
3110,301,3,45
3168,309,8,4125
3211,349,51,322
