id,project_id,prs_id,issues_id
1,6,276,129
1,6,276,6212
2,6,275,129
2,6,275,6212
3,6,274,129
3,6,274,6212
4,6,273,129
4,6,273,6212
5,6,272,129
5,6,272,6212
6,6,271,129
6,6,271,6212
7,6,270,129
7,6,270,6212
8,6,269,129
8,6,269,6212
9,6,268,129
9,6,268,6212
10,6,267,129
10,6,267,6212
11,6,266,129
11,6,266,6212
12,6,265,129
12,6,265,6212
13,6,264,129
13,6,264,6212
14,6,263,129
14,6,263,6212
15,6,262,129
15,6,262,6212
16,6,261,129
16,6,261,6212
17,6,260,129
17,6,260,6212
18,6,259,129
18,6,259,6212
19,6,258,129
19,6,258,6212
20,6,257,129
20,6,257,6212
21,6,256,129
21,6,256,6212
22,6,255,129
22,6,255,6212
23,6,254,129
23,6,254,6212
24,6,253,129
24,6,253,6212
25,6,252,129
25,6,252,6212
26,6,251,129
26,6,251,6212
27,6,250,129
27,6,250,6212
28,6,249,129
28,6,249,6212
29,6,248,129
29,6,248,6212
30,6,247,129
30,6,247,6212
31,6,246,129
31,6,246,6212
32,6,245,129
32,6,245,6212
33,6,244,129
33,6,244,6212
34,6,243,129
34,6,243,6212
35,6,242,129
35,6,242,6212
36,358,936,129
36,358,936,6212
37,358,935,129
37,358,935,6212
38,358,934,129
38,358,934,6212
39,358,933,129
39,358,933,6212
40,358,932,129
40,358,932,6212
41,358,931,129
41,358,931,6212
42,358,930,129
42,358,930,6212
43,358,929,129
43,358,929,6212
44,358,928,129
44,358,928,6212
45,358,927,129
45,358,927,6212
46,358,926,129
46,358,926,6212
47,358,925,129
47,358,925,6212
48,358,924,129
48,358,924,6212
49,358,923,129
49,358,923,6212
50,358,922,129
50,358,922,6212
51,358,921,129
51,358,921,6212
52,358,920,129
52,358,920,6212
53,358,919,129
53,358,919,6212
54,358,918,129
54,358,918,6212
55,358,917,129
55,358,917,6212
56,358,916,129
56,358,916,6212
57,358,915,129
57,358,915,6212
58,358,914,129
58,358,914,6212
59,358,913,129
59,358,913,6212
60,358,912,129
60,358,912,6212
61,358,911,129
61,358,911,6212
62,358,910,129
62,358,910,6212
63,358,909,129
63,358,909,6212
64,358,908,129
64,358,908,6212
65,358,907,129
65,358,907,6212
66,358,906,129
66,358,906,6212
67,358,905,129
67,358,905,6212
68,358,904,129
68,358,904,6212
69,358,903,129
69,358,903,6212
70,358,902,129
70,358,902,6212
71,358,901,129
71,358,901,6212
72,358,900,129
72,358,900,6212
73,358,899,129
73,358,899,6212
74,358,898,129
74,358,898,6212
75,358,897,129
75,358,897,6212
76,358,896,129
76,358,896,6212
77,358,895,129
77,358,895,6212
78,358,894,129
78,358,894,6212
79,358,893,129
79,358,893,6212
80,358,892,129
80,358,892,6212
81,358,891,129
81,358,891,6212
82,358,890,129
82,358,890,6212
83,358,889,129
83,358,889,6212
84,358,888,129
84,358,888,6212
85,358,887,129
85,358,887,6212
86,358,886,129
86,358,886,6212
87,358,885,129
87,358,885,6212
88,358,884,129
88,358,884,6212
89,358,883,129
89,358,883,6212
90,358,882,129
90,358,882,6212
91,358,881,129
91,358,881,6212
92,358,880,129
92,358,880,6212
93,358,879,129
93,358,879,6212
94,358,878,129
94,358,878,6212
95,358,877,129
95,358,877,6212
96,358,876,129
96,358,876,6212
97,358,875,129
97,358,875,6212
98,358,874,129
98,358,874,6212
99,358,873,129
99,358,873,6212
100,358,872,129
100,358,872,6212
101,358,871,129
101,358,871,6212
102,358,870,129
102,358,870,6212
103,358,869,129
103,358,869,6212
104,358,868,129
104,358,868,6212
105,358,867,129
105,358,867,6212
106,358,866,129
106,358,866,6212
107,358,865,129
107,358,865,6212
108,358,864,129
108,358,864,6212
109,358,863,129
109,358,863,6212
110,358,862,129
110,358,862,6212
111,358,861,129
111,358,861,6212
112,358,860,129
112,358,860,6212
113,358,859,129
113,358,859,6212
114,358,858,129
114,358,858,6212
115,358,857,129
115,358,857,6212
116,358,856,129
116,358,856,6212
117,358,855,129
117,358,855,6212
118,358,854,129
118,358,854,6212
119,358,853,129
119,358,853,6212
120,358,852,129
120,358,852,6212
121,358,851,129
121,358,851,6212
122,358,850,129
122,358,850,6212
123,358,849,129
123,358,849,6212
124,358,848,129
124,358,848,6212
125,358,847,129
125,358,847,6212
126,358,846,129
126,358,846,6212
127,358,845,129
127,358,845,6212
128,358,844,129
128,358,844,6212
129,358,843,129
129,358,843,6212
130,358,842,129
130,358,842,6212
131,358,841,129
131,358,841,6212
132,358,840,129
132,358,840,6212
133,358,839,129
133,358,839,6212
134,358,838,129
134,358,838,6212
135,358,837,129
135,358,837,6212
136,358,836,129
136,358,836,6212
137,358,835,129
137,358,835,6212
138,358,834,129
138,358,834,6212
139,358,833,129
139,358,833,6212
140,358,832,129
140,358,832,6212
141,358,831,129
141,358,831,6212
142,358,830,129
142,358,830,6212
143,358,829,129
143,358,829,6212
144,358,828,129
144,358,828,6212
145,358,827,129
145,358,827,6212
146,358,826,129
146,358,826,6212
147,358,825,129
147,358,825,6212
148,358,824,129
148,358,824,6212
149,358,823,129
149,358,823,6212
150,358,822,129
150,358,822,6212
151,358,821,129
151,358,821,6212
152,358,820,129
152,358,820,6212
153,358,819,129
153,358,819,6212
154,358,818,129
154,358,818,6212
155,358,817,129
155,358,817,6212
156,358,816,129
156,358,816,6212
157,358,815,129
157,358,815,6212
158,358,814,129
158,358,814,6212
159,358,813,129
159,358,813,6212
160,358,812,129
160,358,812,6212
161,358,811,129
161,358,811,6212
162,358,810,129
162,358,810,6212
163,358,809,129
163,358,809,6212
164,358,808,129
164,358,808,6212
165,358,807,129
165,358,807,6212
166,358,806,129
166,358,806,6212
167,358,805,129
167,358,805,6212
168,358,804,129
168,358,804,6212
169,358,803,129
169,358,803,6212
170,358,802,129
170,358,802,6212
171,358,801,129
171,358,801,6212
172,358,800,129
172,358,800,6212
173,358,799,129
173,358,799,6212
174,358,798,129
174,358,798,6212
175,358,797,129
175,358,797,6212
176,358,796,129
176,358,796,6212
177,358,795,129
177,358,795,6212
178,358,794,129
178,358,794,6212
179,358,793,129
179,358,793,6212
180,358,792,129
180,358,792,6212
181,358,791,129
181,358,791,6212
182,358,790,129
182,358,790,6212
183,358,789,129
183,358,789,6212
184,358,788,129
184,358,788,6212
185,358,787,129
185,358,787,6212
186,358,786,129
186,358,786,6212
187,358,785,129
187,358,785,6212
188,358,784,129
188,358,784,6212
189,358,783,129
189,358,783,6212
190,358,782,129
190,358,782,6212
191,358,781,129
191,358,781,6212
192,358,780,129
192,358,780,6212
193,358,779,129
193,358,779,6212
194,358,778,129
194,358,778,6212
195,358,777,129
195,358,777,6212
196,358,776,129
196,358,776,6212
197,358,775,129
197,358,775,6212
198,358,774,129
198,358,774,6212
199,358,773,129
199,358,773,6212
200,358,772,129
200,358,772,6212
201,358,771,129
201,358,771,6212
202,358,770,129
202,358,770,6212
203,358,769,129
203,358,769,6212
204,358,768,129
204,358,768,6212
205,358,767,129
205,358,767,6212
206,358,766,129
206,358,766,6212
207,358,765,129
207,358,765,6212
208,358,764,129
208,358,764,6212
209,358,763,129
209,358,763,6212
210,358,762,129
210,358,762,6212
211,358,761,129
211,358,761,6212
212,358,760,129
212,358,760,6212
213,358,759,129
213,358,759,6212
214,358,758,129
214,358,758,6212
215,358,757,129
215,358,757,6212
216,358,756,129
216,358,756,6212
217,358,755,129
217,358,755,6212
218,358,754,129
218,358,754,6212
219,358,753,129
219,358,753,6212
220,358,752,129
220,358,752,6212
221,358,751,129
221,358,751,6212
222,358,750,129
222,358,750,6212
223,358,749,129
223,358,749,6212
224,358,748,129
224,358,748,6212
225,358,747,129
225,358,747,6212
226,358,746,129
226,358,746,6212
227,358,745,129
227,358,745,6212
228,358,744,129
228,358,744,6212
229,358,743,129
229,358,743,6212
230,358,742,129
230,358,742,6212
231,358,741,129
231,358,741,6212
232,358,740,129
232,358,740,6212
233,358,739,129
233,358,739,6212
234,358,738,129
234,358,738,6212
235,358,737,129
235,358,737,6212
236,358,736,129
236,358,736,6212
237,358,735,129
237,358,735,6212
238,358,734,129
238,358,734,6212
239,358,733,129
239,358,733,6212
240,358,732,129
240,358,732,6212
241,358,731,129
241,358,731,6212
242,358,730,129
242,358,730,6212
243,358,729,129
243,358,729,6212
244,358,728,129
244,358,728,6212
245,358,727,129
245,358,727,6212
246,358,726,129
246,358,726,6212
247,358,725,129
247,358,725,6212
248,358,724,129
248,358,724,6212
249,358,723,129
249,358,723,6212
250,358,722,129
250,358,722,6212
251,358,721,129
251,358,721,6212
252,358,720,129
252,358,720,6212
253,358,719,129
253,358,719,6212
254,358,718,129
254,358,718,6212
255,358,717,129
255,358,717,6212
256,358,716,129
256,358,716,6212
257,358,715,129
257,358,715,6212
258,358,714,129
258,358,714,6212
259,358,713,129
259,358,713,6212
260,358,712,129
260,358,712,6212
261,358,711,129
261,358,711,6212
262,358,710,129
262,358,710,6212
263,358,709,129
263,358,709,6212
264,358,708,129
264,358,708,6212
265,358,707,129
265,358,707,6212
266,358,706,129
266,358,706,6212
267,358,705,129
267,358,705,6212
268,358,704,129
268,358,704,6212
269,358,703,129
269,358,703,6212
270,358,702,129
270,358,702,6212
271,358,701,129
271,358,701,6212
272,358,700,129
272,358,700,6212
273,358,699,129
273,358,699,6212
274,358,698,129
274,358,698,6212
275,358,697,129
275,358,697,6212
276,358,696,129
276,358,696,6212
277,358,695,129
277,358,695,6212
278,358,694,129
278,358,694,6212
279,358,693,129
279,358,693,6212
280,358,692,129
280,358,692,6212
281,358,691,129
281,358,691,6212
282,358,690,129
282,358,690,6212
283,358,689,129
283,358,689,6212
284,358,688,129
284,358,688,6212
285,358,687,129
285,358,687,6212
286,358,686,129
286,358,686,6212
287,358,685,129
287,358,685,6212
288,358,684,129
288,358,684,6212
289,358,683,129
289,358,683,6212
290,358,682,129
290,358,682,6212
291,358,681,129
291,358,681,6212
292,358,680,129
292,358,680,6212
293,358,679,129
293,358,679,6212
294,358,678,129
294,358,678,6212
295,358,677,129
295,358,677,6212
296,358,676,129
296,358,676,6212
297,358,675,129
297,358,675,6212
298,358,674,129
298,358,674,6212
299,358,673,129
299,358,673,6212
300,358,672,129
300,358,672,6212
301,358,671,129
301,358,671,6212
302,358,670,129
302,358,670,6212
303,358,669,129
303,358,669,6212
304,358,668,129
304,358,668,6212
305,358,667,129
305,358,667,6212
306,358,666,129
306,358,666,6212
307,358,665,129
307,358,665,6212
308,358,664,129
308,358,664,6212
309,358,663,129
309,358,663,6212
310,358,662,129
310,358,662,6212
311,358,661,129
311,358,661,6212
312,358,660,129
312,358,660,6212
313,358,659,129
313,358,659,6212
314,358,658,129
314,358,658,6212
315,358,657,129
315,358,657,6212
316,358,656,129
316,358,656,6212
317,358,655,129
317,358,655,6212
318,358,654,129
318,358,654,6212
319,358,653,129
319,358,653,6212
320,358,652,129
320,358,652,6212
321,358,651,129
321,358,651,6212
322,358,650,129
322,358,650,6212
323,358,649,129
323,358,649,6212
324,358,648,129
324,358,648,6212
325,358,647,129
325,358,647,6212
326,358,646,129
326,358,646,6212
327,358,645,129
327,358,645,6212
328,358,644,129
328,358,644,6212
329,358,643,129
329,358,643,6212
330,358,642,129
330,358,642,6212
331,358,641,129
331,358,641,6212
332,358,640,129
332,358,640,6212
333,358,639,129
333,358,639,6212
334,358,638,129
334,358,638,6212
335,358,637,129
335,358,637,6212
336,358,636,129
336,358,636,6212
337,358,635,129
337,358,635,6212
338,358,634,129
338,358,634,6212
339,358,633,129
339,358,633,6212
340,358,632,129
340,358,632,6212
341,358,631,129
341,358,631,6212
342,358,630,129
342,358,630,6212
343,358,629,129
343,358,629,6212
344,358,628,129
344,358,628,6212
345,358,627,129
345,358,627,6212
346,358,626,129
346,358,626,6212
347,358,625,129
347,358,625,6212
348,358,624,129
348,358,624,6212
349,358,623,129
349,358,623,6212
350,358,622,129
350,358,622,6212
351,358,621,129
351,358,621,6212
352,358,620,129
352,358,620,6212
353,358,619,129
353,358,619,6212
354,358,618,129
354,358,618,6212
355,358,617,129
355,358,617,6212
356,358,616,129
356,358,616,6212
357,358,615,129
357,358,615,6212
358,358,936,129
358,358,936,6212
359,358,935,129
359,358,935,6212
360,358,934,129
360,358,934,6212
361,358,933,129
361,358,933,6212
362,358,932,129
362,358,932,6212
363,358,931,129
363,358,931,6212
364,358,930,129
364,358,930,6212
365,358,929,129
365,358,929,6212
366,358,928,129
366,358,928,6212
367,358,927,129
367,358,927,6212
368,358,926,129
368,358,926,6212
369,358,925,129
369,358,925,6212
370,358,924,129
370,358,924,6212
371,358,923,129
371,358,923,6212
372,358,922,129
372,358,922,6212
373,358,921,129
373,358,921,6212
374,358,920,129
374,358,920,6212
375,358,919,129
375,358,919,6212
376,358,918,129
376,358,918,6212
377,358,917,129
377,358,917,6212
378,358,916,129
378,358,916,6212
379,358,915,129
379,358,915,6212
380,358,914,129
380,358,914,6212
381,358,913,129
381,358,913,6212
382,358,912,129
382,358,912,6212
383,358,911,129
383,358,911,6212
384,358,910,129
384,358,910,6212
385,358,909,129
385,358,909,6212
386,358,908,129
386,358,908,6212
387,358,907,129
387,358,907,6212
388,358,906,129
388,358,906,6212
389,358,905,129
389,358,905,6212
390,358,904,129
390,358,904,6212
391,358,903,129
391,358,903,6212
392,358,902,129
392,358,902,6212
393,358,901,129
393,358,901,6212
394,358,900,129
394,358,900,6212
395,358,899,129
395,358,899,6212
396,358,898,129
396,358,898,6212
397,358,897,129
397,358,897,6212
398,358,896,129
398,358,896,6212
399,358,895,129
399,358,895,6212
400,358,894,129
400,358,894,6212
401,358,893,129
401,358,893,6212
402,358,892,129
402,358,892,6212
403,358,891,129
403,358,891,6212
404,358,890,129
404,358,890,6212
405,358,889,129
405,358,889,6212
406,358,888,129
406,358,888,6212
407,358,887,129
407,358,887,6212
408,358,886,129
408,358,886,6212
409,358,885,129
409,358,885,6212
410,358,884,129
410,358,884,6212
411,358,883,129
411,358,883,6212
412,358,882,129
412,358,882,6212
413,358,881,129
413,358,881,6212
414,358,880,129
414,358,880,6212
415,358,879,129
415,358,879,6212
416,358,878,129
416,358,878,6212
417,358,877,129
417,358,877,6212
418,358,876,129
418,358,876,6212
419,358,875,129
419,358,875,6212
420,358,874,129
420,358,874,6212
421,358,873,129
421,358,873,6212
422,358,872,129
422,358,872,6212
423,358,871,129
423,358,871,6212
424,358,870,129
424,358,870,6212
425,358,869,129
425,358,869,6212
426,358,868,129
426,358,868,6212
427,358,867,129
427,358,867,6212
428,358,866,129
428,358,866,6212
429,358,865,129
429,358,865,6212
430,358,864,129
430,358,864,6212
431,358,863,129
431,358,863,6212
432,358,862,129
432,358,862,6212
433,358,861,129
433,358,861,6212
434,358,860,129
434,358,860,6212
435,358,859,129
435,358,859,6212
436,358,858,129
436,358,858,6212
437,358,857,129
437,358,857,6212
438,358,856,129
438,358,856,6212
439,358,855,129
439,358,855,6212
440,358,854,129
440,358,854,6212
441,358,853,129
441,358,853,6212
442,358,852,129
442,358,852,6212
443,358,851,129
443,358,851,6212
444,358,850,129
444,358,850,6212
445,358,849,129
445,358,849,6212
446,358,848,129
446,358,848,6212
447,358,847,129
447,358,847,6212
448,358,846,129
448,358,846,6212
449,358,845,129
449,358,845,6212
450,358,844,129
450,358,844,6212
451,358,843,129
451,358,843,6212
452,358,842,129
452,358,842,6212
453,358,841,129
453,358,841,6212
454,358,840,129
454,358,840,6212
455,358,839,129
455,358,839,6212
456,358,838,129
456,358,838,6212
457,358,837,129
457,358,837,6212
458,358,836,129
458,358,836,6212
459,358,835,129
459,358,835,6212
460,358,834,129
460,358,834,6212
461,358,833,129
461,358,833,6212
462,358,832,129
462,358,832,6212
463,358,831,129
463,358,831,6212
464,358,830,129
464,358,830,6212
465,358,829,129
465,358,829,6212
466,358,828,129
466,358,828,6212
467,358,827,129
467,358,827,6212
468,358,826,129
468,358,826,6212
469,358,825,129
469,358,825,6212
470,358,824,129
470,358,824,6212
471,358,823,129
471,358,823,6212
472,358,822,129
472,358,822,6212
473,358,821,129
473,358,821,6212
474,358,820,129
474,358,820,6212
475,358,819,129
475,358,819,6212
476,358,818,129
476,358,818,6212
477,358,817,129
477,358,817,6212
478,358,816,129
478,358,816,6212
479,358,815,129
479,358,815,6212
480,358,814,129
480,358,814,6212
481,358,813,129
481,358,813,6212
482,358,812,129
482,358,812,6212
483,358,811,129
483,358,811,6212
484,358,810,129
484,358,810,6212
485,358,809,129
485,358,809,6212
486,358,808,129
486,358,808,6212
487,358,807,129
487,358,807,6212
488,358,806,129
488,358,806,6212
489,358,805,129
489,358,805,6212
490,358,804,129
490,358,804,6212
491,358,803,129
491,358,803,6212
492,358,802,129
492,358,802,6212
493,358,801,129
493,358,801,6212
494,358,800,129
494,358,800,6212
495,358,799,129
495,358,799,6212
496,358,798,129
496,358,798,6212
497,358,797,129
497,358,797,6212
498,358,796,129
498,358,796,6212
499,358,795,129
499,358,795,6212
500,358,794,129
500,358,794,6212
501,358,793,129
501,358,793,6212
502,358,792,129
502,358,792,6212
503,358,791,129
503,358,791,6212
504,358,790,129
504,358,790,6212
505,358,789,129
505,358,789,6212
506,358,788,129
506,358,788,6212
507,358,787,129
507,358,787,6212
508,358,786,129
508,358,786,6212
509,358,785,129
509,358,785,6212
510,358,784,129
510,358,784,6212
511,358,783,129
511,358,783,6212
512,358,782,129
512,358,782,6212
513,358,781,129
513,358,781,6212
514,358,780,129
514,358,780,6212
515,358,779,129
515,358,779,6212
516,358,778,129
516,358,778,6212
517,358,777,129
517,358,777,6212
518,358,776,129
518,358,776,6212
519,358,775,129
519,358,775,6212
520,358,774,129
520,358,774,6212
521,358,773,129
521,358,773,6212
522,358,772,129
522,358,772,6212
523,358,771,129
523,358,771,6212
524,358,770,129
524,358,770,6212
525,358,769,129
525,358,769,6212
526,358,768,129
526,358,768,6212
527,358,767,129
527,358,767,6212
528,358,766,129
528,358,766,6212
529,358,765,129
529,358,765,6212
530,358,764,129
530,358,764,6212
531,358,763,129
531,358,763,6212
532,358,762,129
532,358,762,6212
533,358,761,129
533,358,761,6212
534,358,760,129
534,358,760,6212
535,358,759,129
535,358,759,6212
536,358,758,129
536,358,758,6212
537,358,757,129
537,358,757,6212
538,358,756,129
538,358,756,6212
539,358,755,129
539,358,755,6212
540,358,754,129
540,358,754,6212
541,358,753,129
541,358,753,6212
542,358,752,129
542,358,752,6212
543,358,751,129
543,358,751,6212
544,358,750,129
544,358,750,6212
545,358,749,129
545,358,749,6212
546,358,748,129
546,358,748,6212
547,358,747,129
547,358,747,6212
548,358,746,129
548,358,746,6212
549,358,745,129
549,358,745,6212
550,358,744,129
550,358,744,6212
551,358,743,129
551,358,743,6212
552,358,742,129
552,358,742,6212
553,358,741,129
553,358,741,6212
554,358,740,129
554,358,740,6212
555,358,739,129
555,358,739,6212
556,358,738,129
556,358,738,6212
557,358,737,129
557,358,737,6212
558,358,736,129
558,358,736,6212
559,358,735,129
559,358,735,6212
560,358,734,129
560,358,734,6212
561,358,733,129
561,358,733,6212
562,358,732,129
562,358,732,6212
563,358,731,129
563,358,731,6212
564,358,730,129
564,358,730,6212
565,358,729,129
565,358,729,6212
566,358,728,129
566,358,728,6212
567,358,727,129
567,358,727,6212
568,358,726,129
568,358,726,6212
569,358,725,129
569,358,725,6212
570,358,724,129
570,358,724,6212
571,358,723,129
571,358,723,6212
572,358,722,129
572,358,722,6212
573,358,721,129
573,358,721,6212
574,358,720,129
574,358,720,6212
575,358,719,129
575,358,719,6212
576,358,718,129
576,358,718,6212
577,358,717,129
577,358,717,6212
578,358,716,129
578,358,716,6212
579,358,715,129
579,358,715,6212
580,358,714,129
580,358,714,6212
581,358,713,129
581,358,713,6212
582,358,712,129
582,358,712,6212
583,358,711,129
583,358,711,6212
584,358,710,129
584,358,710,6212
585,358,709,129
585,358,709,6212
586,358,708,129
586,358,708,6212
587,358,707,129
587,358,707,6212
588,358,706,129
588,358,706,6212
589,358,705,129
589,358,705,6212
590,358,704,129
590,358,704,6212
591,358,703,129
591,358,703,6212
592,358,702,129
592,358,702,6212
593,358,701,129
593,358,701,6212
594,358,700,129
594,358,700,6212
595,358,699,129
595,358,699,6212
596,358,698,129
596,358,698,6212
597,358,697,129
597,358,697,6212
598,358,696,129
598,358,696,6212
599,358,695,129
599,358,695,6212
600,358,694,129
600,358,694,6212
601,358,693,129
601,358,693,6212
602,358,692,129
602,358,692,6212
603,358,691,129
603,358,691,6212
604,358,690,129
604,358,690,6212
605,358,689,129
605,358,689,6212
606,358,688,129
606,358,688,6212
607,358,687,129
607,358,687,6212
608,358,686,129
608,358,686,6212
609,358,685,129
609,358,685,6212
610,358,684,129
610,358,684,6212
611,358,683,129
611,358,683,6212
612,358,682,129
612,358,682,6212
613,358,681,129
613,358,681,6212
614,358,680,129
614,358,680,6212
615,358,679,129
615,358,679,6212
616,358,678,129
616,358,678,6212
618,358,676,129
618,358,676,6212
619,358,675,129
619,358,675,6212
620,358,674,129
620,358,674,6212
621,358,673,129
621,358,673,6212
622,358,672,129
622,358,672,6212
623,358,671,129
623,358,671,6212
624,358,670,129
624,358,670,6212
625,358,669,129
625,358,669,6212
626,358,668,129
626,358,668,6212
627,358,667,129
627,358,667,6212
628,358,666,129
628,358,666,6212
629,358,665,129
629,358,665,6212
630,358,664,129
630,358,664,6212
631,358,663,129
631,358,663,6212
632,358,662,129
632,358,662,6212
633,358,661,129
633,358,661,6212
634,358,660,129
634,358,660,6212
635,358,659,129
635,358,659,6212
636,358,658,129
636,358,658,6212
637,358,657,129
637,358,657,6212
638,358,656,129
638,358,656,6212
639,358,655,129
639,358,655,6212
640,358,654,129
640,358,654,6212
641,358,653,129
641,358,653,6212
642,358,652,129
642,358,652,6212
643,358,651,129
643,358,651,6212
644,358,650,129
644,358,650,6212
645,358,649,129
645,358,649,6212
646,358,648,129
646,358,648,6212
647,358,647,129
647,358,647,6212
648,358,646,129
648,358,646,6212
649,358,645,129
649,358,645,6212
650,358,644,129
650,358,644,6212
651,358,643,129
651,358,643,6212
652,358,642,129
652,358,642,6212
653,358,641,129
653,358,641,6212
654,358,640,129
654,358,640,6212
655,358,639,129
655,358,639,6212
656,358,638,129
656,358,638,6212
657,358,637,129
657,358,637,6212
658,358,636,129
658,358,636,6212
659,358,635,129
659,358,635,6212
660,358,634,129
660,358,634,6212
661,358,633,129
661,358,633,6212
662,358,632,129
662,358,632,6212
663,358,631,129
663,358,631,6212
664,358,630,129
664,358,630,6212
665,358,629,129
665,358,629,6212
666,358,628,129
666,358,628,6212
667,358,627,129
667,358,627,6212
668,358,626,129
668,358,626,6212
669,358,625,129
669,358,625,6212
670,358,624,129
670,358,624,6212
671,358,623,129
671,358,623,6212
672,358,622,129
672,358,622,6212
673,358,621,129
673,358,621,6212
674,358,620,129
674,358,620,6212
675,358,619,129
675,358,619,6212
676,358,618,129
676,358,618,6212
677,358,617,129
677,358,617,6212
678,358,616,129
678,358,616,6212
679,358,615,129
679,358,615,6212
680,14,489,129
680,14,489,6212
681,14,488,129
681,14,488,6212
682,14,487,129
682,14,487,6212
683,14,486,129
683,14,486,6212
684,14,485,129
684,14,485,6212
685,14,484,129
685,14,484,6212
686,14,483,129
686,14,483,6212
687,14,482,129
687,14,482,6212
688,14,481,129
688,14,481,6212
689,14,480,129
689,14,480,6212
690,14,479,129
690,14,479,6212
691,14,478,129
691,14,478,6212
692,14,477,129
692,14,477,6212
693,14,476,129
693,14,476,6212
694,14,475,129
694,14,475,6212
695,14,474,129
695,14,474,6212
696,14,473,129
696,14,473,6212
697,14,472,129
697,14,472,6212
698,14,471,129
698,14,471,6212
699,14,470,129
699,14,470,6212
700,14,469,129
700,14,469,6212
701,14,468,129
701,14,468,6212
702,14,467,129
702,14,467,6212
703,14,466,129
703,14,466,6212
704,14,465,129
704,14,465,6212
705,14,464,129
705,14,464,6212
706,14,463,129
706,14,463,6212
707,14,462,129
707,14,462,6212
708,14,461,129
708,14,461,6212
709,14,460,129
709,14,460,6212
710,14,459,129
710,14,459,6212
711,14,458,129
711,14,458,6212
712,14,457,129
712,14,457,6212
713,14,456,129
713,14,456,6212
714,14,455,129
714,14,455,6212
715,14,454,129
715,14,454,6212
716,14,453,129
716,14,453,6212
717,14,452,129
717,14,452,6212
718,14,451,129
718,14,451,6212
719,14,450,129
719,14,450,6212
720,14,449,129
720,14,449,6212
721,14,448,129
721,14,448,6212
722,14,447,129
722,14,447,6212
723,14,446,129
723,14,446,6212
724,14,445,129
724,14,445,6212
725,14,444,129
725,14,444,6212
726,14,443,129
726,14,443,6212
727,14,442,129
727,14,442,6212
728,14,441,129
728,14,441,6212
729,14,440,129
729,14,440,6212
730,14,439,129
730,14,439,6212
731,14,438,129
731,14,438,6212
732,14,437,129
732,14,437,6212
733,14,436,129
733,14,436,6212
734,14,435,129
734,14,435,6212
735,14,434,129
735,14,434,6212
736,14,433,129
736,14,433,6212
737,14,432,129
737,14,432,6212
738,14,431,129
738,14,431,6212
739,14,430,129
739,14,430,6212
740,14,429,129
740,14,429,6212
741,14,428,129
741,14,428,6212
742,14,427,129
742,14,427,6212
743,14,426,129
743,14,426,6212
744,14,425,129
744,14,425,6212
745,14,424,129
745,14,424,6212
746,14,423,129
746,14,423,6212
747,14,422,129
747,14,422,6212
748,14,421,129
748,14,421,6212
749,14,420,129
749,14,420,6212
750,14,419,129
750,14,419,6212
751,14,418,129
751,14,418,6212
752,14,417,129
752,14,417,6212
753,14,416,129
753,14,416,6212
754,14,415,129
754,14,415,6212
755,14,414,129
755,14,414,6212
756,14,413,129
756,14,413,6212
757,14,412,129
757,14,412,6212
758,14,411,129
758,14,411,6212
759,14,410,129
759,14,410,6212
760,14,409,129
760,14,409,6212
761,14,408,129
761,14,408,6212
762,14,407,129
762,14,407,6212
763,14,406,129
763,14,406,6212
764,14,405,129
764,14,405,6212
765,14,404,129
765,14,404,6212
766,14,403,129
766,14,403,6212
767,14,402,129
767,14,402,6212
768,14,401,129
768,14,401,6212
769,14,400,129
769,14,400,6212
770,14,399,129
770,14,399,6212
771,14,398,129
771,14,398,6212
772,14,397,129
772,14,397,6212
773,14,396,129
773,14,396,6212
774,14,395,129
774,14,395,6212
775,14,394,129
775,14,394,6212
776,14,393,129
776,14,393,6212
777,14,392,129
777,14,392,6212
778,14,391,129
778,14,391,6212
779,14,390,129
779,14,390,6212
780,14,389,129
780,14,389,6212
781,14,388,129
781,14,388,6212
782,14,387,129
782,14,387,6212
783,14,386,129
783,14,386,6212
784,14,385,129
784,14,385,6212
785,14,384,129
785,14,384,6212
786,14,383,129
786,14,383,6212
787,14,382,129
787,14,382,6212
788,14,381,129
788,14,381,6212
789,14,380,129
789,14,380,6212
790,14,379,129
790,14,379,6212
791,14,378,129
791,14,378,6212
792,14,377,129
792,14,377,6212
793,14,376,129
793,14,376,6212
794,14,375,129
794,14,375,6212
795,14,374,129
795,14,374,6212
796,14,373,129
796,14,373,6212
797,14,372,129
797,14,372,6212
798,14,371,129
798,14,371,6212
799,14,370,129
799,14,370,6212
800,14,369,129
800,14,369,6212
801,14,368,129
801,14,368,6212
802,14,367,129
802,14,367,6212
803,14,366,129
803,14,366,6212
804,14,365,129
804,14,365,6212
805,14,364,129
805,14,364,6212
806,14,363,129
806,14,363,6212
807,14,362,129
807,14,362,6212
808,14,361,129
808,14,361,6212
809,14,360,129
809,14,360,6212
810,14,359,129
810,14,359,6212
811,14,358,129
811,14,358,6212
812,14,357,129
812,14,357,6212
813,14,356,129
813,14,356,6212
814,14,355,129
814,14,355,6212
815,14,354,129
815,14,354,6212
816,14,353,129
816,14,353,6212
817,14,352,129
817,14,352,6212
818,14,351,129
818,14,351,6212
819,14,350,129
819,14,350,6212
820,14,349,129
820,14,349,6212
821,14,348,129
821,14,348,6212
822,14,347,129
822,14,347,6212
823,14,346,129
823,14,346,6212
824,14,345,129
824,14,345,6212
825,14,344,129
825,14,344,6212
826,14,343,129
826,14,343,6212
827,14,342,129
827,14,342,6212
828,14,341,129
828,14,341,6212
829,14,340,129
829,14,340,6212
830,14,339,129
830,14,339,6212
831,14,338,129
831,14,338,6212
832,14,337,129
832,14,337,6212
833,14,336,129
833,14,336,6212
834,14,335,129
834,14,335,6212
835,14,334,129
835,14,334,6212
836,14,333,129
836,14,333,6212
837,14,332,129
837,14,332,6212
838,14,331,129
838,14,331,6212
839,14,330,129
839,14,330,6212
840,14,329,129
840,14,329,6212
841,14,328,129
841,14,328,6212
842,14,327,129
842,14,327,6212
843,30,350,129
843,30,350,6212
844,30,349,129
844,30,349,6212
845,30,348,129
845,30,348,6212
846,30,347,129
846,30,347,6212
847,30,346,129
847,30,346,6212
848,30,345,129
848,30,345,6212
849,30,344,129
849,30,344,6212
850,30,343,129
850,30,343,6212
851,30,342,129
851,30,342,6212
852,30,341,129
852,30,341,6212
853,30,340,129
853,30,340,6212
854,30,339,129
854,30,339,6212
855,30,338,129
855,30,338,6212
856,30,337,129
856,30,337,6212
857,30,336,129
857,30,336,6212
858,30,335,129
858,30,335,6212
859,30,334,129
859,30,334,6212
860,30,333,129
860,30,333,6212
861,30,332,129
861,30,332,6212
862,30,331,129
862,30,331,6212
863,30,330,129
863,30,330,6212
864,30,329,129
864,30,329,6212
865,30,328,129
865,30,328,6212
866,30,327,129
866,30,327,6212
867,30,326,129
867,30,326,6212
868,30,325,129
868,30,325,6212
869,30,324,129
869,30,324,6212
870,30,323,129
870,30,323,6212
871,30,322,129
871,30,322,6212
872,30,321,129
872,30,321,6212
873,30,320,129
873,30,320,6212
874,30,319,129
874,30,319,6212
875,30,318,129
875,30,318,6212
876,30,317,129
876,30,317,6212
877,30,316,129
877,30,316,6212
878,30,315,129
878,30,315,6212
879,30,314,129
879,30,314,6212
880,30,313,129
880,30,313,6212
881,30,312,129
881,30,312,6212
882,30,311,129
882,30,311,6212
883,30,310,129
883,30,310,6212
884,30,309,129
884,30,309,6212
885,30,308,129
885,30,308,6212
886,30,307,129
886,30,307,6212
887,30,306,129
887,30,306,6212
888,30,305,129
888,30,305,6212
889,30,304,129
889,30,304,6212
890,30,303,129
890,30,303,6212
891,30,302,129
891,30,302,6212
892,30,301,129
892,30,301,6212
893,30,300,129
893,30,300,6212
894,30,299,129
894,30,299,6212
895,30,298,129
895,30,298,6212
896,30,297,129
896,30,297,6212
897,30,296,129
897,30,296,6212
898,30,295,129
898,30,295,6212
899,30,294,129
899,30,294,6212
900,30,293,129
900,30,293,6212
901,30,292,129
901,30,292,6212
902,30,291,129
902,30,291,6212
903,30,290,129
903,30,290,6212
904,30,289,129
904,30,289,6212
905,30,288,129
905,30,288,6212
906,30,287,129
906,30,287,6212
907,30,286,129
907,30,286,6212
908,30,285,129
908,30,285,6212
909,30,284,129
909,30,284,6212
910,30,283,129
910,30,283,6212
911,30,282,129
911,30,282,6212
912,30,281,129
912,30,281,6212
913,30,280,129
913,30,280,6212
914,30,279,129
914,30,279,6212
915,30,278,129
915,30,278,6212
916,30,277,129
916,30,277,6212
917,30,276,129
917,30,276,6212
918,30,275,129
918,30,275,6212
919,30,274,129
919,30,274,6212
920,30,273,129
920,30,273,6212
921,30,272,129
921,30,272,6212
922,30,271,129
922,30,271,6212
923,30,270,129
923,30,270,6212
924,30,269,129
924,30,269,6212
925,30,268,129
925,30,268,6212
926,30,267,129
926,30,267,6212
927,30,266,129
927,30,266,6212
928,30,265,129
928,30,265,6212
929,30,264,129
929,30,264,6212
930,30,263,129
930,30,263,6212
931,30,262,129
931,30,262,6212
932,30,261,129
932,30,261,6212
933,30,260,129
933,30,260,6212
934,30,259,129
934,30,259,6212
935,30,258,129
935,30,258,6212
936,30,257,129
936,30,257,6212
937,30,256,129
937,30,256,6212
938,30,255,129
938,30,255,6212
939,30,254,129
939,30,254,6212
940,30,253,129
940,30,253,6212
941,30,252,129
941,30,252,6212
942,30,251,129
942,30,251,6212
943,30,250,129
943,30,250,6212
944,30,249,129
944,30,249,6212
945,30,248,129
945,30,248,6212
946,30,247,129
946,30,247,6212
947,30,246,129
947,30,246,6212
948,30,245,129
948,30,245,6212
949,30,244,129
949,30,244,6212
950,30,243,129
950,30,243,6212
951,30,242,129
951,30,242,6212
952,30,241,129
952,30,241,6212
953,30,240,129
953,30,240,6212
954,30,239,129
954,30,239,6212
955,30,238,129
955,30,238,6212
956,30,237,129
956,30,237,6212
957,30,236,129
957,30,236,6212
958,30,235,129
958,30,235,6212
959,30,234,129
959,30,234,6212
960,30,233,129
960,30,233,6212
961,30,232,129
961,30,232,6212
962,30,231,129
962,30,231,6212
963,30,230,129
963,30,230,6212
964,30,229,129
964,30,229,6212
965,30,228,129
965,30,228,6212
966,30,227,129
966,30,227,6212
967,30,226,129
967,30,226,6212
968,30,225,129
968,30,225,6212
969,30,224,129
969,30,224,6212
970,30,223,129
970,30,223,6212
971,30,222,129
971,30,222,6212
972,30,221,129
972,30,221,6212
973,30,220,129
973,30,220,6212
974,30,219,129
974,30,219,6212
975,30,218,129
975,30,218,6212
976,30,217,129
976,30,217,6212
977,30,216,129
977,30,216,6212
978,30,215,129
978,30,215,6212
979,30,214,129
979,30,214,6212
980,30,213,129
980,30,213,6212
981,30,212,129
981,30,212,6212
982,30,211,129
982,30,211,6212
983,30,210,129
983,30,210,6212
984,30,209,129
984,30,209,6212
985,30,208,129
985,30,208,6212
986,30,207,129
986,30,207,6212
987,30,206,129
987,30,206,6212
988,30,205,129
988,30,205,6212
989,30,204,129
989,30,204,6212
990,30,203,129
990,30,203,6212
991,30,202,129
991,30,202,6212
992,30,201,129
992,30,201,6212
993,30,200,129
993,30,200,6212
994,30,199,129
994,30,199,6212
995,30,198,129
995,30,198,6212
996,30,197,129
996,30,197,6212
997,30,196,129
997,30,196,6212
998,30,195,129
998,30,195,6212
999,30,194,129
999,30,194,6212
1000,30,193,129
1000,30,193,6212
1001,30,192,129
1001,30,192,6212
1002,30,191,129
1002,30,191,6212
1003,30,190,129
1003,30,190,6212
1004,30,189,129
1004,30,189,6212
1005,30,188,129
1005,30,188,6212
1006,30,187,129
1006,30,187,6212
1007,30,186,129
1007,30,186,6212
1008,30,185,129
1008,30,185,6212
1009,30,184,129
1009,30,184,6212
1010,30,183,129
1010,30,183,6212
1011,30,182,129
1011,30,182,6212
1012,30,181,129
1012,30,181,6212
1013,30,180,129
1013,30,180,6212
1014,30,179,129
1014,30,179,6212
1015,30,178,129
1015,30,178,6212
1016,30,177,129
1016,30,177,6212
1017,30,176,129
1017,30,176,6212
1018,30,175,129
1018,30,175,6212
1019,30,174,129
1019,30,174,6212
1020,30,173,129
1020,30,173,6212
1021,30,172,129
1021,30,172,6212
1022,30,171,129
1022,30,171,6212
1023,30,170,129
1023,30,170,6212
1024,30,169,129
1024,30,169,6212
1025,30,168,129
1025,30,168,6212
1026,30,167,129
1026,30,167,6212
1027,30,166,129
1027,30,166,6212
1028,30,165,129
1028,30,165,6212
1029,30,164,129
1029,30,164,6212
1030,30,163,129
1030,30,163,6212
1031,30,162,129
1031,30,162,6212
1032,30,161,129
1032,30,161,6212
1033,30,160,129
1033,30,160,6212
1034,30,159,129
1034,30,159,6212
1035,30,158,129
1035,30,158,6212
1036,30,157,129
1036,30,157,6212
1037,30,156,129
1037,30,156,6212
1038,30,155,129
1038,30,155,6212
1039,30,154,129
1039,30,154,6212
1040,30,153,129
1040,30,153,6212
1041,30,152,129
1041,30,152,6212
1042,30,151,129
1042,30,151,6212
1043,30,150,129
1043,30,150,6212
1044,30,149,129
1044,30,149,6212
1045,30,148,129
1045,30,148,6212
1046,30,147,129
1046,30,147,6212
1047,30,146,129
1047,30,146,6212
1048,30,145,129
1048,30,145,6212
1049,30,144,129
1049,30,144,6212
1050,30,143,129
1050,30,143,6212
1051,30,142,129
1051,30,142,6212
1052,30,141,129
1052,30,141,6212
1053,30,140,129
1053,30,140,6212
1054,30,139,129
1054,30,139,6212
1055,30,138,129
1055,30,138,6212
1056,30,137,129
1056,30,137,6212
1057,30,136,129
1057,30,136,6212
1058,30,135,129
1058,30,135,6212
1059,30,134,129
1059,30,134,6212
1060,30,133,129
1060,30,133,6212
1061,30,132,129
1061,30,132,6212
1062,30,131,129
1062,30,131,6212
1063,30,130,129
1063,30,130,6212
1064,30,129,129
1064,30,129,6212
1065,30,128,129
1065,30,128,6212
1066,30,127,129
1066,30,127,6212
1067,30,126,129
1067,30,126,6212
1068,30,125,129
1068,30,125,6212
1069,30,124,129
1069,30,124,6212
1070,30,123,129
1070,30,123,6212
1071,30,122,129
1071,30,122,6212
1072,30,121,129
1072,30,121,6212
1073,30,120,129
1073,30,120,6212
1074,30,119,129
1074,30,119,6212
1075,30,118,129
1075,30,118,6212
1076,30,117,129
1076,30,117,6212
1077,30,116,129
1077,30,116,6212
1078,30,115,129
1078,30,115,6212
1079,30,114,129
1079,30,114,6212
1080,30,113,129
1080,30,113,6212
1081,30,112,129
1081,30,112,6212
1082,30,111,129
1082,30,111,6212
1083,30,110,129
1083,30,110,6212
1084,30,109,129
1084,30,109,6212
1085,30,108,129
1085,30,108,6212
1086,30,107,129
1086,30,107,6212
1087,30,106,129
1087,30,106,6212
1088,30,105,129
1088,30,105,6212
1089,30,104,129
1089,30,104,6212
1090,30,103,129
1090,30,103,6212
1091,30,102,129
1091,30,102,6212
1092,30,101,129
1092,30,101,6212
1093,30,100,129
1093,30,100,6212
1094,30,99,129
1094,30,99,6212
1095,30,98,129
1095,30,98,6212
1096,30,97,129
1096,30,97,6212
1097,30,96,129
1097,30,96,6212
1098,30,95,129
1098,30,95,6212
1099,30,94,129
1099,30,94,6212
1100,30,93,129
1100,30,93,6212
1101,30,92,129
1101,30,92,6212
1102,30,91,129
1102,30,91,6212
1103,30,90,129
1103,30,90,6212
1104,30,89,129
1104,30,89,6212
1105,30,88,129
1105,30,88,6212
1106,30,87,129
1106,30,87,6212
1107,30,86,129
1107,30,86,6212
1108,30,85,129
1108,30,85,6212
1109,30,84,129
1109,30,84,6212
1110,30,83,129
1110,30,83,6212
1111,30,82,129
1111,30,82,6212
1112,30,81,129
1112,30,81,6212
1113,30,80,129
1113,30,80,6212
1114,30,79,129
1114,30,79,6212
1115,30,78,129
1115,30,78,6212
1116,38,4,129
1116,38,4,6212
1117,38,3,129
1117,38,3,6212
1118,38,2,129
1118,38,2,6212
1119,38,1,129
1119,38,1,6212
1120,54,12,129
1120,54,12,6212
1121,54,11,129
1121,54,11,6212
1122,54,10,129
1122,54,10,6212
1123,54,9,129
1123,54,9,6212
1124,54,8,129
1124,54,8,6212
1125,54,7,129
1125,54,7,6212
1126,54,6,129
1126,54,6,6212
1127,94,4,129
1127,94,4,6212
1128,94,3,129
1128,94,3,6212
1129,94,2,129
1129,94,2,6212
1130,142,136,129
1130,142,136,6212
1131,142,135,129
1131,142,135,6212
1132,142,134,129
1132,142,134,6212
1133,142,133,129
1133,142,133,6212
1134,142,132,129
1134,142,132,6212
1135,142,131,129
1135,142,131,6212
1136,142,130,129
1136,142,130,6212
1137,142,129,129
1137,142,129,6212
1138,142,128,129
1138,142,128,6212
1139,142,127,129
1139,142,127,6212
1140,142,126,129
1140,142,126,6212
1141,142,125,129
1141,142,125,6212
1142,142,124,129
1142,142,124,6212
1143,142,123,129
1143,142,123,6212
1144,142,122,129
1144,142,122,6212
1145,142,121,129
1145,142,121,6212
1146,142,120,129
1146,142,120,6212
1147,142,119,129
1147,142,119,6212
1148,142,118,129
1148,142,118,6212
1149,142,117,129
1149,142,117,6212
1150,142,116,129
1150,142,116,6212
1151,142,115,129
1151,142,115,6212
1152,142,114,129
1152,142,114,6212
1153,142,113,129
1153,142,113,6212
1154,142,112,129
1154,142,112,6212
1155,142,111,129
1155,142,111,6212
1156,142,110,129
1156,142,110,6212
1157,142,109,129
1157,142,109,6212
1158,142,108,129
1158,142,108,6212
1159,142,107,129
1159,142,107,6212
1160,142,106,129
1160,142,106,6212
1161,142,105,129
1161,142,105,6212
1162,142,104,129
1162,142,104,6212
1163,142,103,129
1163,142,103,6212
1164,142,102,129
1164,142,102,6212
1165,142,101,129
1165,142,101,6212
1166,142,100,129
1166,142,100,6212
1167,142,99,129
1167,142,99,6212
1168,142,98,129
1168,142,98,6212
1169,142,97,129
1169,142,97,6212
1170,142,96,129
1170,142,96,6212
1171,142,95,129
1171,142,95,6212
1172,142,94,129
1172,142,94,6212
1173,142,93,129
1173,142,93,6212
1174,142,92,129
1174,142,92,6212
1175,142,91,129
1175,142,91,6212
1176,142,90,129
1176,142,90,6212
1177,142,89,129
1177,142,89,6212
1178,142,88,129
1178,142,88,6212
1179,142,87,129
1179,142,87,6212
1180,142,86,129
1180,142,86,6212
1181,142,85,129
1181,142,85,6212
1182,142,84,129
1182,142,84,6212
1183,142,83,129
1183,142,83,6212
1184,142,82,129
1184,142,82,6212
1185,142,81,129
1185,142,81,6212
1186,142,80,129
1186,142,80,6212
1187,142,79,129
1187,142,79,6212
1188,142,78,129
1188,142,78,6212
1189,142,77,129
1189,142,77,6212
1190,142,76,129
1190,142,76,6212
1191,142,75,129
1191,142,75,6212
1192,142,74,129
1192,142,74,6212
1193,142,73,129
1193,142,73,6212
1194,142,72,129
1194,142,72,6212
1195,142,71,129
1195,142,71,6212
1196,142,70,129
1196,142,70,6212
1197,142,69,129
1197,142,69,6212
1198,142,68,129
1198,142,68,6212
1199,142,67,129
1199,142,67,6212
1200,142,66,129
1200,142,66,6212
1201,142,65,129
1201,142,65,6212
1202,142,64,129
1202,142,64,6212
1203,142,63,129
1203,142,63,6212
1204,142,62,129
1204,142,62,6212
1205,142,61,129
1205,142,61,6212
1206,142,60,129
1206,142,60,6212
1207,142,59,129
1207,142,59,6212
1208,142,58,129
1208,142,58,6212
1209,142,57,129
1209,142,57,6212
1210,142,56,129
1210,142,56,6212
1211,142,55,129
1211,142,55,6212
1212,142,54,129
1212,142,54,6212
1213,142,53,129
1213,142,53,6212
1214,142,52,129
1214,142,52,6212
1215,142,51,129
1215,142,51,6212
1216,142,50,129
1216,142,50,6212
1217,142,49,129
1217,142,49,6212
1218,142,48,129
1218,142,48,6212
1219,142,47,129
1219,142,47,6212
1220,142,46,129
1220,142,46,6212
1221,142,45,129
1221,142,45,6212
1222,142,44,129
1222,142,44,6212
1223,142,43,129
1223,142,43,6212
1224,142,42,129
1224,142,42,6212
1225,142,41,129
1225,142,41,6212
1226,142,40,129
1226,142,40,6212
1227,142,39,129
1227,142,39,6212
1228,142,38,129
1228,142,38,6212
1229,142,37,129
1229,142,37,6212
1230,142,36,129
1230,142,36,6212
1231,142,35,129
1231,142,35,6212
1232,142,34,129
1232,142,34,6212
1233,142,33,129
1233,142,33,6212
1234,142,32,129
1234,142,32,6212
1235,142,31,129
1235,142,31,6212
1236,142,30,129
1236,142,30,6212
1237,142,29,129
1237,142,29,6212
1238,142,28,129
1238,142,28,6212
1239,142,27,129
1239,142,27,6212
1240,142,26,129
1240,142,26,6212
1241,142,25,129
1241,142,25,6212
1242,142,24,129
1242,142,24,6212
1243,142,23,129
1243,142,23,6212
1244,142,22,129
1244,142,22,6212
1245,142,21,129
1245,142,21,6212
1246,142,20,129
1246,142,20,6212
1247,142,19,129
1247,142,19,6212
1248,142,18,129
1248,142,18,6212
1249,142,17,129
1249,142,17,6212
1250,142,16,129
1250,142,16,6212
1251,142,15,129
1251,142,15,6212
1252,142,14,129
1252,142,14,6212
1253,142,13,129
1253,142,13,6212
1254,142,12,129
1254,142,12,6212
1255,142,11,129
1255,142,11,6212
1256,142,10,129
1256,142,10,6212
1257,142,9,129
1257,142,9,6212
1258,142,8,129
1258,142,8,6212
1259,142,7,129
1259,142,7,6212
1260,142,6,129
1260,142,6,6212
1261,142,5,129
1261,142,5,6212
1262,142,4,129
1262,142,4,6212
1263,142,3,129
1263,142,3,6212
1264,142,2,129
1264,142,2,6212
1265,150,38,129
1265,150,38,6212
1266,150,37,129
1266,150,37,6212
1267,150,36,129
1267,150,36,6212
1268,150,35,129
1268,150,35,6212
1269,150,34,129
1269,150,34,6212
1270,150,33,129
1270,150,33,6212
1271,150,32,129
1271,150,32,6212
1272,150,31,129
1272,150,31,6212
1273,150,30,129
1273,150,30,6212
1274,150,29,129
1274,150,29,6212
1275,150,28,129
1275,150,28,6212
1276,150,27,129
1276,150,27,6212
1277,150,26,129
1277,150,26,6212
1278,150,25,129
1278,150,25,6212
1279,150,24,129
1279,150,24,6212
1280,150,23,129
1280,150,23,6212
1281,150,22,129
1281,150,22,6212
1282,150,21,129
1282,150,21,6212
1283,150,20,129
1283,150,20,6212
1284,150,19,129
1284,150,19,6212
1285,150,18,129
1285,150,18,6212
1286,150,17,129
1286,150,17,6212
1287,150,16,129
1287,150,16,6212
1288,150,15,129
1288,150,15,6212
1289,150,14,129
1289,150,14,6212
1290,150,13,129
1290,150,13,6212
1291,150,12,129
1291,150,12,6212
1292,150,11,129
1292,150,11,6212
1293,150,10,129
1293,150,10,6212
1294,150,9,129
1294,150,9,6212
1295,174,9,129
1295,174,9,6212
1296,174,8,129
1296,174,8,6212
1297,174,7,129
1297,174,7,6212
1298,174,6,129
1298,174,6,6212
1299,174,5,129
1299,174,5,6212
1300,174,4,129
1300,174,4,6212
1301,206,22,129
1301,206,22,6212
1302,206,21,129
1302,206,21,6212
1303,206,20,129
1303,206,20,6212
1304,206,19,129
1304,206,19,6212
1305,206,18,129
1305,206,18,6212
1306,206,17,129
1306,206,17,6212
1307,206,16,129
1307,206,16,6212
1308,206,15,129
1308,206,15,6212
1309,206,14,129
1309,206,14,6212
1310,206,13,129
1310,206,13,6212
1311,206,12,129
1311,206,12,6212
1312,206,11,129
1312,206,11,6212
1313,206,10,129
1313,206,10,6212
1314,206,9,129
1314,206,9,6212
1315,206,8,129
1315,206,8,6212
1316,206,7,129
1316,206,7,6212
1317,206,6,129
1317,206,6,6212
1318,206,5,129
1318,206,5,6212
1319,222,2,129
1319,222,2,6212
1320,230,3,129
1320,230,3,6212
1321,230,2,129
1321,230,2,6212
1322,230,1,129
1322,230,1,6212
1323,238,1,129
1323,238,1,6212
1324,254,3,129
1324,254,3,6212
1325,262,3,129
1325,262,3,6212
1326,262,2,129
1326,262,2,6212
1327,262,1,129
1327,262,1,6212
1328,270,2,129
1328,270,2,6212
1329,270,1,129
1329,270,1,6212
1330,286,8,129
1330,286,8,6212
1331,286,7,129
1331,286,7,6212
1332,286,6,129
1332,286,6,6212
1333,286,5,129
1333,286,5,6212
1334,294,1,129
1334,294,1,6212
1335,310,5,129
1335,310,5,6212
1336,310,4,129
1336,310,4,6212
1337,310,3,129
1337,310,3,6212
1338,310,2,129
1338,310,2,6212
1339,318,29,129
1339,318,29,6212
1340,318,28,129
1340,318,28,6212
1341,318,27,129
1341,318,27,6212
1342,318,26,129
1342,318,26,6212
1343,318,25,129
1343,318,25,6212
1344,318,24,129
1344,318,24,6212
1345,318,23,129
1345,318,23,6212
1346,318,22,129
1346,318,22,6212
1347,318,21,129
1347,318,21,6212
1348,318,20,129
1348,318,20,6212
1349,318,19,129
1349,318,19,6212
1350,318,18,129
1350,318,18,6212
1351,318,17,129
1351,318,17,6212
1352,318,16,129
1352,318,16,6212
1353,318,15,129
1353,318,15,6212
1354,318,14,129
1354,318,14,6212
1355,318,13,129
1355,318,13,6212
1356,318,12,129
1356,318,12,6212
1357,318,11,129
1357,318,11,6212
1358,318,10,129
1358,318,10,6212
1359,326,1,129
1359,326,1,6212
1360,342,11,129
1360,342,11,6212
1361,342,10,129
1361,342,10,6212
1362,342,9,129
1362,342,9,6212
1363,342,8,129
1363,342,8,6212
1364,342,7,129
1364,342,7,6212
1365,342,6,129
1365,342,6,6212
1366,342,5,129
1366,342,5,6212
1367,342,4,129
1367,342,4,6212
1368,342,3,129
1368,342,3,6212
1369,342,2,129
1369,342,2,6212
1370,342,1,129
1370,342,1,6212
1371,350,535,129
1371,350,535,6212
1372,350,534,129
1372,350,534,6212
1373,350,533,129
1373,350,533,6212
1374,350,532,129
1374,350,532,6212
1375,350,531,129
1375,350,531,6212
1376,350,530,129
1376,350,530,6212
1377,350,529,129
1377,350,529,6212
1378,350,528,129
1378,350,528,6212
1379,350,527,129
1379,350,527,6212
1380,350,526,129
1380,350,526,6212
1381,350,525,129
1381,350,525,6212
1382,350,524,129
1382,350,524,6212
1383,350,523,129
1383,350,523,6212
1384,350,522,129
1384,350,522,6212
1385,350,521,129
1385,350,521,6212
1386,350,520,129
1386,350,520,6212
1387,350,519,129
1387,350,519,6212
1388,350,518,129
1388,350,518,6212
1389,350,517,129
1389,350,517,6212
1390,350,516,129
1390,350,516,6212
1391,350,515,129
1391,350,515,6212
1392,350,514,129
1392,350,514,6212
1393,350,513,129
1393,350,513,6212
1394,350,512,129
1394,350,512,6212
1395,350,511,129
1395,350,511,6212
1396,350,510,129
1396,350,510,6212
1397,350,509,129
1397,350,509,6212
1398,350,508,129
1398,350,508,6212
1399,350,506,129
1399,350,506,6212
1400,350,505,129
1400,350,505,6212
1401,350,504,129
1401,350,504,6212
1402,350,503,129
1402,350,503,6212
1403,350,502,129
1403,350,502,6212
1404,350,501,129
1404,350,501,6212
1405,350,500,129
1405,350,500,6212
1406,350,499,129
1406,350,499,6212
1407,350,498,129
1407,350,498,6212
1408,350,497,129
1408,350,497,6212
1409,350,496,129
1409,350,496,6212
1410,350,495,129
1410,350,495,6212
1411,350,494,129
1411,350,494,6212
1412,350,493,129
1412,350,493,6212
1413,350,492,129
1413,350,492,6212
1414,350,491,129
1414,350,491,6212
1415,350,490,129
1415,350,490,6212
1416,350,489,129
1416,350,489,6212
1417,350,488,129
1417,350,488,6212
1418,350,487,129
1418,350,487,6212
1419,350,486,129
1419,350,486,6212
1420,350,485,129
1420,350,485,6212
1421,350,484,129
1421,350,484,6212
1422,350,483,129
1422,350,483,6212
1423,350,482,129
1423,350,482,6212
1424,350,481,129
1424,350,481,6212
1425,350,480,129
1425,350,480,6212
1426,350,479,129
1426,350,479,6212
1427,350,478,129
1427,350,478,6212
1428,350,477,129
1428,350,477,6212
1429,350,476,129
1429,350,476,6212
1430,350,475,129
1430,350,475,6212
1431,350,474,129
1431,350,474,6212
1432,350,473,129
1432,350,473,6212
1433,350,472,129
1433,350,472,6212
1434,350,471,129
1434,350,471,6212
1435,350,470,129
1435,350,470,6212
1436,350,469,129
1436,350,469,6212
1437,350,468,129
1437,350,468,6212
1438,350,467,129
1438,350,467,6212
1439,350,466,129
1439,350,466,6212
1440,350,465,129
1440,350,465,6212
1441,350,464,129
1441,350,464,6212
1442,350,463,129
1442,350,463,6212
1443,350,462,129
1443,350,462,6212
1444,350,461,129
1444,350,461,6212
1445,350,460,129
1445,350,460,6212
1446,350,459,129
1446,350,459,6212
1447,350,458,129
1447,350,458,6212
1448,350,457,129
1448,350,457,6212
1449,350,456,129
1449,350,456,6212
1450,350,455,129
1450,350,455,6212
1451,350,454,129
1451,350,454,6212
1452,350,453,129
1452,350,453,6212
1453,350,452,129
1453,350,452,6212
1454,350,451,129
1454,350,451,6212
1455,350,450,129
1455,350,450,6212
1456,350,449,129
1456,350,449,6212
1457,350,448,129
1457,350,448,6212
1458,350,447,129
1458,350,447,6212
1459,350,446,129
1459,350,446,6212
1460,350,445,129
1460,350,445,6212
1461,350,444,129
1461,350,444,6212
1462,350,443,129
1462,350,443,6212
1463,350,442,129
1463,350,442,6212
1464,350,441,129
1464,350,441,6212
1465,350,440,129
1465,350,440,6212
1466,350,439,129
1466,350,439,6212
1467,350,438,129
1467,350,438,6212
1468,350,437,129
1468,350,437,6212
1469,350,436,129
1469,350,436,6212
1470,350,435,129
1470,350,435,6212
1471,350,434,129
1471,350,434,6212
1472,350,433,129
1472,350,433,6212
1473,350,432,129
1473,350,432,6212
1474,350,431,129
1474,350,431,6212
1475,350,430,129
1475,350,430,6212
1476,350,429,129
1476,350,429,6212
1477,350,428,129
1477,350,428,6212
1478,350,427,129
1478,350,427,6212
1479,350,426,129
1479,350,426,6212
1480,350,425,129
1480,350,425,6212
1481,350,424,129
1481,350,424,6212
1482,350,423,129
1482,350,423,6212
1483,350,422,129
1483,350,422,6212
1484,350,420,129
1484,350,420,6212
1485,350,419,129
1485,350,419,6212
1486,350,418,129
1486,350,418,6212
1487,350,417,129
1487,350,417,6212
1488,350,416,129
1488,350,416,6212
1489,350,415,129
1489,350,415,6212
1490,350,414,129
1490,350,414,6212
1491,350,413,129
1491,350,413,6212
1492,350,412,129
1492,350,412,6212
1493,350,411,129
1493,350,411,6212
1494,350,410,129
1494,350,410,6212
1495,350,409,129
1495,350,409,6212
1496,350,408,129
1496,350,408,6212
1497,350,407,129
1497,350,407,6212
1498,350,406,129
1498,350,406,6212
1499,350,405,129
1499,350,405,6212
1500,350,404,129
1500,350,404,6212
1501,350,403,129
1501,350,403,6212
1502,350,402,129
1502,350,402,6212
1503,350,401,129
1503,350,401,6212
1504,350,400,129
1504,350,400,6212
1505,350,399,129
1505,350,399,6212
1506,350,398,129
1506,350,398,6212
1507,350,397,129
1507,350,397,6212
1508,350,396,129
1508,350,396,6212
1509,350,395,129
1509,350,395,6212
1510,350,394,129
1510,350,394,6212
